^C:\BCI2000\BCI2000\SRC\CUSTOM\OK01\OKFRONTPANELDLL.CPP
/c /IC:/BCI2000/BCI2000/build/custom/Ok01 /IC:/BCI2000/BCI2000/src/custom/Ok01 /IC:/Qt/4.8.6/include /IC:/Qt/4.8.6/include/QtGui /IC:/Qt/4.8.6/include/QtCore /IC:/BCI2000/BCI2000/build/../src/shared /IC:/BCI2000/BCI2000/build/../src/shared/accessors /IC:/BCI2000/BCI2000/build/../src/shared/bcistream /IC:/BCI2000/BCI2000/build/../src/shared/config /IC:/BCI2000/BCI2000/build/../src/shared/modules /IC:/BCI2000/BCI2000/build/../src/shared/filters /IC:/BCI2000/BCI2000/build/../src/shared/types /IC:/BCI2000/BCI2000/build/../src/shared/utils /IC:/BCI2000/BCI2000/build/../src/shared/utils/Expression /IC:/BCI2000/BCI2000/build/../src/shared/fileio /IC:/BCI2000/BCI2000/build/../src/shared/fileio/dat /IC:/BCI2000/BCI2000/build/../src/shared/fileio/edf_gdf /IC:/BCI2000/BCI2000/build/../src/shared/modules/signalsource /IC:/BCI2000/BCI2000/build/../src/contrib/Extensions/DataGloveLogger /IC:/BCI2000/BCI2000/build/../src/contrib/Extensions/DataGloveLogger/extlib/include /IC:/BCI2000/BCI2000/build/../src/contrib/Extensions/WebcamLogger /IC:/BCI2000/BCI2000/build/../src/extlib/opencv/modules/core/include /IC:/BCI2000/BCI2000/build/../src/extlib/opencv/modules/core/include/opencv2/core /IC:/BCI2000/BCI2000/build/../src/extlib/opencv/modules/highgui/include /IC:/BCI2000/BCI2000/build/../src/extlib/opencv/modules/highgui/include/opencv2/highgui /IC:/BCI2000/BCI2000/build/../src/contrib/Extensions/EyetrackerLogger/extlib/include /IC:/BCI2000/BCI2000/build/../src/contrib/Extensions/EyetrackerLogger /IC:/BCI2000/BCI2000/build/../src/contrib/Extensions/WiimoteLogger/extlib/winddk/inc /IC:/BCI2000/BCI2000/build/../src/contrib/Extensions/WiimoteLogger/extlib/WiiYourself /IC:/BCI2000/BCI2000/build/../src/contrib/Extensions/WiimoteLogger /IC:/BCI2000/BCI2000/build/../src/contrib/Extensions/AudioExtension /IC:/BCI2000/BCI2000/build/../src/contrib/Extensions/AudioExtension/portaudio/inc /IC:/BCI2000/BCI2000/build/../src/contrib/Extensions/AudioExtension/libsndfile/inc /IC:/BCI2000/BCI2000/build/../src/extlib/math /nologo /W3 /WX- /O2 /Ob2 /Oy- /D WIN32 /D _WINDOWS /D NDEBUG /D _SECURE_SCL=0 /D MODTYPE=1 /D USE_QT /D QT_DLL /D QT_GUI_LIB /D QT_CORE_LIB /D NOMINMAX /D _CRT_SECURE_NO_WARNINGS /D _CRT_SECURE_NO_DEPRECATE /D _CRT_NONSTDC_NO_WARNINGS /D _SCL_SECURE_NO_WARNINGS /D "COMPILER_NAME=\"MSVC\"" /D NO_PCHINCLUDES /D _USE_MATH_DEFINES /D "BCI2000_VERSION_STRING=\"3.0.5\"" /D QT_NO_DEBUG /D "CMAKE_INTDIR=\"Release\"" /D _MBCS /Gm- /EHsc /MT /GS /arch:SSE2 /fp:precise /Zc:wchar_t /Zc:forScope /GR /Fo"Ok01.dir\Release\\" /Fd"C:/BCI2000/BCI2000/prog/Ok01.pdb" /Gd /TP /wd4355 /wd4800 /analyze- /errorReport:prompt  /Zm1000  C:\BCI2000\BCI2000\SRC\CUSTOM\OK01\OKFRONTPANELDLL.CPP
^C:\BCI2000\BCI2000\SRC\SHARED\MODULES\COREMAIN.CPP
/c /IC:/BCI2000/BCI2000/build/custom/Ok01 /IC:/BCI2000/BCI2000/src/custom/Ok01 /IC:/Qt/4.8.6/include /IC:/Qt/4.8.6/include/QtGui /IC:/Qt/4.8.6/include/QtCore /IC:/BCI2000/BCI2000/build/../src/shared /IC:/BCI2000/BCI2000/build/../src/shared/accessors /IC:/BCI2000/BCI2000/build/../src/shared/bcistream /IC:/BCI2000/BCI2000/build/../src/shared/config /IC:/BCI2000/BCI2000/build/../src/shared/modules /IC:/BCI2000/BCI2000/build/../src/shared/filters /IC:/BCI2000/BCI2000/build/../src/shared/types /IC:/BCI2000/BCI2000/build/../src/shared/utils /IC:/BCI2000/BCI2000/build/../src/shared/utils/Expression /IC:/BCI2000/BCI2000/build/../src/shared/fileio /IC:/BCI2000/BCI2000/build/../src/shared/fileio/dat /IC:/BCI2000/BCI2000/build/../src/shared/fileio/edf_gdf /IC:/BCI2000/BCI2000/build/../src/shared/modules/signalsource /IC:/BCI2000/BCI2000/build/../src/contrib/Extensions/DataGloveLogger /IC:/BCI2000/BCI2000/build/../src/contrib/Extensions/DataGloveLogger/extlib/include /IC:/BCI2000/BCI2000/build/../src/contrib/Extensions/WebcamLogger /IC:/BCI2000/BCI2000/build/../src/extlib/opencv/modules/core/include /IC:/BCI2000/BCI2000/build/../src/extlib/opencv/modules/core/include/opencv2/core /IC:/BCI2000/BCI2000/build/../src/extlib/opencv/modules/highgui/include /IC:/BCI2000/BCI2000/build/../src/extlib/opencv/modules/highgui/include/opencv2/highgui /IC:/BCI2000/BCI2000/build/../src/contrib/Extensions/EyetrackerLogger/extlib/include /IC:/BCI2000/BCI2000/build/../src/contrib/Extensions/EyetrackerLogger /IC:/BCI2000/BCI2000/build/../src/contrib/Extensions/WiimoteLogger/extlib/winddk/inc /IC:/BCI2000/BCI2000/build/../src/contrib/Extensions/WiimoteLogger/extlib/WiiYourself /IC:/BCI2000/BCI2000/build/../src/contrib/Extensions/WiimoteLogger /IC:/BCI2000/BCI2000/build/../src/contrib/Extensions/AudioExtension /IC:/BCI2000/BCI2000/build/../src/contrib/Extensions/AudioExtension/portaudio/inc /IC:/BCI2000/BCI2000/build/../src/contrib/Extensions/AudioExtension/libsndfile/inc /IC:/BCI2000/BCI2000/build/../src/extlib/math /nologo /W3 /WX- /O2 /Ob2 /Oy- /D WIN32 /D _WINDOWS /D NDEBUG /D _SECURE_SCL=0 /D MODTYPE=1 /D USE_QT /D QT_DLL /D QT_GUI_LIB /D QT_CORE_LIB /D NOMINMAX /D _CRT_SECURE_NO_WARNINGS /D _CRT_SECURE_NO_DEPRECATE /D _CRT_NONSTDC_NO_WARNINGS /D _SCL_SECURE_NO_WARNINGS /D "COMPILER_NAME=\"MSVC\"" /D NO_PCHINCLUDES /D _USE_MATH_DEFINES /D "BCI2000_VERSION_STRING=\"3.0.5\"" /D QT_NO_DEBUG /D "CMAKE_INTDIR=\"Release\"" /D _MBCS /Gm- /EHsc /MT /GS /arch:SSE2 /fp:precise /Zc:wchar_t /Zc:forScope /GR /Fo"Ok01.dir\Release\\" /Fd"C:/BCI2000/BCI2000/prog/Ok01.pdb" /Gd /TP /wd4355 /wd4800 /analyze- /errorReport:prompt  /Zm1000  C:\BCI2000\BCI2000\SRC\SHARED\MODULES\COREMAIN.CPP
^C:\BCI2000\BCI2000\SRC\CUSTOM\OK01\OK01ADC.CPP
/c /IC:/BCI2000/BCI2000/build/custom/Ok01 /IC:/BCI2000/BCI2000/src/custom/Ok01 /IC:/Qt/4.8.6/include /IC:/Qt/4.8.6/include/QtGui /IC:/Qt/4.8.6/include/QtCore /IC:/BCI2000/BCI2000/build/../src/shared /IC:/BCI2000/BCI2000/build/../src/shared/accessors /IC:/BCI2000/BCI2000/build/../src/shared/bcistream /IC:/BCI2000/BCI2000/build/../src/shared/config /IC:/BCI2000/BCI2000/build/../src/shared/modules /IC:/BCI2000/BCI2000/build/../src/shared/filters /IC:/BCI2000/BCI2000/build/../src/shared/types /IC:/BCI2000/BCI2000/build/../src/shared/utils /IC:/BCI2000/BCI2000/build/../src/shared/utils/Expression /IC:/BCI2000/BCI2000/build/../src/shared/fileio /IC:/BCI2000/BCI2000/build/../src/shared/fileio/dat /IC:/BCI2000/BCI2000/build/../src/shared/fileio/edf_gdf /IC:/BCI2000/BCI2000/build/../src/shared/modules/signalsource /IC:/BCI2000/BCI2000/build/../src/contrib/Extensions/DataGloveLogger /IC:/BCI2000/BCI2000/build/../src/contrib/Extensions/DataGloveLogger/extlib/include /IC:/BCI2000/BCI2000/build/../src/contrib/Extensions/WebcamLogger /IC:/BCI2000/BCI2000/build/../src/extlib/opencv/modules/core/include /IC:/BCI2000/BCI2000/build/../src/extlib/opencv/modules/core/include/opencv2/core /IC:/BCI2000/BCI2000/build/../src/extlib/opencv/modules/highgui/include /IC:/BCI2000/BCI2000/build/../src/extlib/opencv/modules/highgui/include/opencv2/highgui /IC:/BCI2000/BCI2000/build/../src/contrib/Extensions/EyetrackerLogger/extlib/include /IC:/BCI2000/BCI2000/build/../src/contrib/Extensions/EyetrackerLogger /IC:/BCI2000/BCI2000/build/../src/contrib/Extensions/WiimoteLogger/extlib/winddk/inc /IC:/BCI2000/BCI2000/build/../src/contrib/Extensions/WiimoteLogger/extlib/WiiYourself /IC:/BCI2000/BCI2000/build/../src/contrib/Extensions/WiimoteLogger /IC:/BCI2000/BCI2000/build/../src/contrib/Extensions/AudioExtension /IC:/BCI2000/BCI2000/build/../src/contrib/Extensions/AudioExtension/portaudio/inc /IC:/BCI2000/BCI2000/build/../src/contrib/Extensions/AudioExtension/libsndfile/inc /IC:/BCI2000/BCI2000/build/../src/extlib/math /nologo /W3 /WX- /O2 /Ob2 /Oy- /D WIN32 /D _WINDOWS /D NDEBUG /D _SECURE_SCL=0 /D MODTYPE=1 /D USE_QT /D QT_DLL /D QT_GUI_LIB /D QT_CORE_LIB /D NOMINMAX /D _CRT_SECURE_NO_WARNINGS /D _CRT_SECURE_NO_DEPRECATE /D _CRT_NONSTDC_NO_WARNINGS /D _SCL_SECURE_NO_WARNINGS /D "COMPILER_NAME=\"MSVC\"" /D NO_PCHINCLUDES /D _USE_MATH_DEFINES /D "BCI2000_VERSION_STRING=\"3.0.5\"" /D QT_NO_DEBUG /D "CMAKE_INTDIR=\"Release\"" /D _MBCS /Gm- /EHsc /MT /GS /arch:SSE2 /fp:precise /Zc:wchar_t /Zc:forScope /GR /Fo"Ok01.dir\Release\\" /Fd"C:/BCI2000/BCI2000/prog/Ok01.pdb" /Gd /TP /wd4355 /wd4800 /analyze- /errorReport:prompt  /Zm1000  C:\BCI2000\BCI2000\SRC\CUSTOM\OK01\OK01ADC.CPP
