^C:\BCI2000\BCI2000\BUILD\CORE\SIGNALPROCESSING\DUMMY\DUMMYSIGNALPROCESSING.DIR\RELEASE\COREMAIN.OBJ|C:\BCI2000\BCI2000\BUILD\CORE\SIGNALPROCESSING\DUMMY\DUMMYSIGNALPROCESSING.DIR\RELEASE\PIPEDEFINITION.OBJ
/ERRORREPORT:PROMPT /OUT:"C:\BCI2000\BCI2000\prog\DummySignalProcessing.exe" /VERSION:"0.0" /INCREMENTAL:NO /NOLOGO kernel32.lib user32.lib gdi32.lib winspool.lib shell32.lib ole32.lib oleaut32.lib uuid.lib comdlg32.lib advapi32.lib ..\..\..\frameworks\CoreLib\Release\BCI2000FrameworkCore.lib ..\..\..\frameworks\SigProcModuleLib\Release\BCI2000FrameworkSigProcModule.lib ..\..\..\frameworks\CoreLib\Release\BCI2000FrameworkCore.lib ws2_32.lib winmm.lib C:\Qt\4.8.6\lib\QtGui4.lib C:\Qt\4.8.6\lib\QtCore4.lib /NODEFAULTLIB:msvcrt /NODEFAULTLIB:msvcrtd /NODEFAULTLIB:msvcprt /NODEFAULTLIB:msvcprtd /MANIFEST /ManifestFile:"DummySignalProcessing.dir\Release\DummySignalProcessing.exe.intermediate.manifest" /MANIFESTUAC:"level='asInvoker' uiAccess='false'" /PDB:"C:\BCI2000\BCI2000\prog\DummySignalProcessing.pdb" /SUBSYSTEM:WINDOWS /STACK:"10000000" /TLBID:1 /DYNAMICBASE /NXCOMPAT /IMPLIB:"C:/BCI2000/BCI2000/prog/DummySignalProcessing.lib" /MACHINE:X86 DummySignalProcessing.dir\Release\CoreMain.obj
DummySignalProcessing.dir\Release\PipeDefinition.obj  /machine:X86 /include:_SigProcRegistry 
