^C:\BCI2000\BCI2000\BUILD\CMAKEFILES\GENERATE.STAMP.RULE
C:\BCI2000\BCI2000\BUILD\CMAKEFILES\CMAKECCOMPILER.CMAKE
C:\BCI2000\BCI2000\BUILD\CMAKEFILES\CMAKECPLATFORM.CMAKE
C:\BCI2000\BCI2000\BUILD\CMAKEFILES\CMAKECXXCOMPILER.CMAKE
C:\BCI2000\BCI2000\BUILD\CMAKEFILES\CMAKECXXPLATFORM.CMAKE
C:\BCI2000\BCI2000\BUILD\CMAKEFILES\CMAKERCCOMPILER.CMAKE
C:\BCI2000\BCI2000\BUILD\CMAKEFILES\CMAKESYSTEM.CMAKE
C:\BCI2000\BCI2000\BUILD\CMAKELISTS.TXT
C:\BCI2000\BCI2000\BUILD\BUILDUTILS\BOOTSTRAPCUSTOMPROJECTS\CMAKELISTS.TXT
C:\BCI2000\BCI2000\BUILD\BUILDUTILS\CMAKELISTS.TXT
C:\BCI2000\BCI2000\BUILD\BUILDUTILS\PARAMGENERATOR\CMAKELISTS.TXT
C:\BCI2000\BCI2000\BUILD\CMAKE\ADDCOREMAIN.CMAKE
C:\BCI2000\BCI2000\BUILD\CMAKE\ADDREGISTRYMACRO.CMAKE
C:\BCI2000\BCI2000\BUILD\CMAKE\APPLICATIONCOMMONS.CMAKE
C:\BCI2000\BCI2000\BUILD\CMAKE\APPLICATIONMACRO.CMAKE
C:\BCI2000\BCI2000\BUILD\CMAKE\BCI2000PACKAGE.CMAKE
C:\BCI2000\BCI2000\BUILD\CMAKE\BUILDCONFIGURATIONS.CMAKE
C:\BCI2000\BCI2000\BUILD\CMAKE\FINDDEPENDENCIES.CMAKE
C:\BCI2000\BCI2000\BUILD\CMAKE\FINDQT.CMAKE
C:\BCI2000\BCI2000\BUILD\CMAKE\INCLUDEEXTENSIONMACRO.CMAKE
C:\BCI2000\BCI2000\BUILD\CMAKE\MODULEINVENTORY.CMAKE
C:\BCI2000\BCI2000\BUILD\CMAKE\SETOUTPUTDIRECTORYMACRO.CMAKE
C:\BCI2000\BCI2000\BUILD\CMAKE\SETUPBCI2000MACROS.CMAKE
C:\BCI2000\BCI2000\BUILD\CMAKE\SETUPEXTLIBDEPENDENCIES.CMAKE
C:\BCI2000\BCI2000\BUILD\CMAKE\SETUPGUIIMPORTS.CMAKE
C:\BCI2000\BCI2000\BUILD\CMAKE\SIGNALPROCESSINGMACRO.CMAKE
C:\BCI2000\BCI2000\BUILD\CMAKE\SIGNALSOURCECOMMONS.CMAKE
C:\BCI2000\BCI2000\BUILD\CMAKE\SIGNALSOURCEMACRO.CMAKE
C:\BCI2000\BCI2000\BUILD\CMAKE\TOOLSCMDLINEMACRO.CMAKE
C:\BCI2000\BCI2000\BUILD\CMAKE\TOOLSGUIAPPMACRO.CMAKE
C:\BCI2000\BCI2000\BUILD\CMAKE\EXTLIB\3DAPI.CMAKE
C:\BCI2000\BCI2000\BUILD\CMAKE\EXTLIB\ALGLIB.CMAKE
C:\BCI2000\BCI2000\BUILD\CMAKE\EXTLIB\CMAKELISTS.TXT
C:\BCI2000\BCI2000\BUILD\CMAKE\EXTLIB\COM.CMAKE
C:\BCI2000\BCI2000\BUILD\CMAKE\EXTLIB\DSOUND.CMAKE
C:\BCI2000\BCI2000\BUILD\CMAKE\EXTLIB\FFT.CMAKE
C:\BCI2000\BCI2000\BUILD\CMAKE\EXTLIB\FIELDTRIP.CMAKE
C:\BCI2000\BCI2000\BUILD\CMAKE\EXTLIB\GMOBILAB.CMAKE
C:\BCI2000\BCI2000\BUILD\CMAKE\EXTLIB\GMOBILABPLUS.CMAKE
C:\BCI2000\BCI2000\BUILD\CMAKE\EXTLIB\GUSBAMP.CMAKE
C:\BCI2000\BCI2000\BUILD\CMAKE\EXTLIB\MATH.CMAKE
C:\BCI2000\BCI2000\BUILD\CMAKE\EXTLIB\MATLAB.CMAKE
C:\BCI2000\BCI2000\BUILD\CMAKE\EXTLIB\PTHREADS.CMAKE
C:\BCI2000\BCI2000\BUILD\CMAKE\EXTLIB\SAPI.CMAKE
C:\BCI2000\BCI2000\BUILD\CMAKE\EXTLIB\SOURCEFILTER.CMAKE
C:\BCI2000\BCI2000\BUILD\CMAKE\EXTLIB\STATISTICS.CMAKE
C:\BCI2000\BCI2000\BUILD\CMAKE\EXTLIB\VAMP.CMAKE
C:\BCI2000\BCI2000\BUILD\CMAKE\FRAMEWORKS\APPMODULE.CMAKE
C:\BCI2000\BCI2000\BUILD\CMAKE\FRAMEWORKS\APPMODULELIB\CMAKELISTS.TXT
C:\BCI2000\BCI2000\BUILD\CMAKE\FRAMEWORKS\CMAKELISTS.TXT
C:\BCI2000\BCI2000\BUILD\CMAKE\FRAMEWORKS\CORE.CMAKE
C:\BCI2000\BCI2000\BUILD\CMAKE\FRAMEWORKS\CORELIB\CMAKELISTS.TXT
C:\BCI2000\BCI2000\BUILD\CMAKE\FRAMEWORKS\CORELIB\CORELIBFILES.CMAKE
C:\BCI2000\BCI2000\BUILD\CMAKE\FRAMEWORKS\COREMODULE.CMAKE
C:\BCI2000\BCI2000\BUILD\CMAKE\FRAMEWORKS\COREMODULELIB.CMAKE
C:\BCI2000\BCI2000\BUILD\CMAKE\FRAMEWORKS\SIGPROCMODULE.CMAKE
C:\BCI2000\BCI2000\BUILD\CMAKE\FRAMEWORKS\SIGPROCMODULELIB\CMAKELISTS.TXT
C:\BCI2000\BCI2000\BUILD\CMAKE\FRAMEWORKS\SIGSRCMODULE.CMAKE
C:\BCI2000\BCI2000\BUILD\CMAKE\FRAMEWORKS\SIGSRCMODULELIB\CMAKELISTS.TXT
C:\BCI2000\BCI2000\BUILD\CMAKE\GUI\CONFIGWINDOWQT.CMAKE
C:\BCI2000\BCI2000\BUILD\CMAKE\GUI\EDITMATRIXQT.CMAKE
C:\BCI2000\BCI2000\BUILD\CMAKE\GUI\OPERATORUTILSQT.CMAKE
C:\BCI2000\BCI2000\BUILD\CMAKE\GUI\PREFDIALOGQT.CMAKE
C:\BCI2000\BCI2000\BUILD\CMAKE\GUI\PREFERENCESQT.CMAKE
C:\BCI2000\BCI2000\BUILD\CMAKE\GUI\SHOWPARAMETERSQT.CMAKE
C:\BCI2000\BCI2000\SRC\CONTRIB\APPCONNECTORAPPLICATIONS\APPCONNECTOREXAMPLE\CMAKELISTS.TXT
C:\BCI2000\BCI2000\SRC\CONTRIB\APPCONNECTORAPPLICATIONS\APPCONNECTOREXAMPLE\SRC\CMAKELISTS.TXT
C:\BCI2000\BCI2000\SRC\CONTRIB\APPCONNECTORAPPLICATIONS\CMAKELISTS.TXT
C:\BCI2000\BCI2000\SRC\CONTRIB\APPCONNECTORAPPLICATIONS\PARALLELSWITCH\CMAKELISTS.TXT
C:\BCI2000\BCI2000\SRC\CONTRIB\APPCONNECTORAPPLICATIONS\SIMPLEEXAMPLE\CMAKELISTS.TXT
C:\BCI2000\BCI2000\SRC\CONTRIB\APPLICATION\CMAKELISTS.TXT
C:\BCI2000\BCI2000\SRC\CONTRIB\BCPY2000\CMAKELISTS.TXT
C:\BCI2000\BCI2000\SRC\CONTRIB\BCPY2000\FOUNDATION\APPLICATION\CMAKELISTS.TXT
C:\BCI2000\BCI2000\SRC\CONTRIB\BCPY2000\FOUNDATION\CMAKELISTS.TXT
C:\BCI2000\BCI2000\SRC\CONTRIB\BCPY2000\FOUNDATION\SIGNALPROCESSING\CMAKELISTS.TXT
C:\BCI2000\BCI2000\SRC\CONTRIB\BCPY2000\FOUNDATION\SIGNALSOURCE\CMAKELISTS.TXT
C:\BCI2000\BCI2000\SRC\CONTRIB\CMAKELISTS.TXT
C:\BCI2000\BCI2000\SRC\CONTRIB\EXTENSIONS\AUDIOEXTENSION\INCLUDEEXTENSION.CMAKE
C:\BCI2000\BCI2000\SRC\CONTRIB\EXTENSIONS\CMAKELISTS.TXT
C:\BCI2000\BCI2000\SRC\CONTRIB\EXTENSIONS\DATAGLOVELOGGER\INCLUDEEXTENSION.CMAKE
C:\BCI2000\BCI2000\SRC\CONTRIB\EXTENSIONS\EXTENSIONS.CMAKE
C:\BCI2000\BCI2000\SRC\CONTRIB\EXTENSIONS\EYETRACKERLOGGER\INCLUDEEXTENSION.CMAKE
C:\BCI2000\BCI2000\SRC\CONTRIB\EXTENSIONS\GAZEMONITORFILTER\INCLUDEEXTENSION.CMAKE
C:\BCI2000\BCI2000\SRC\CONTRIB\EXTENSIONS\WEBCAMLOGGER\INCLUDEEXTENSION.CMAKE
C:\BCI2000\BCI2000\SRC\CONTRIB\EXTENSIONS\WIIMOTELOGGER\CMAKELISTS.TXT
C:\BCI2000\BCI2000\SRC\CONTRIB\EXTENSIONS\WIIMOTELOGGER\INCLUDEEXTENSION.CMAKE
C:\BCI2000\BCI2000\SRC\CONTRIB\EXTERNALLINKS\BCI2000AUTOMATION\CMAKELISTS.TXT
C:\BCI2000\BCI2000\SRC\CONTRIB\EXTERNALLINKS\BCI2000COMMAND\CMAKELISTS.TXT
C:\BCI2000\BCI2000\SRC\CONTRIB\EXTERNALLINKS\BCI2000PRESENTATIONLINK\CMAKELISTS.TXT
C:\BCI2000\BCI2000\SRC\CONTRIB\EXTERNALLINKS\BCI2000PYTHONBINDINGS\CMAKELISTS.TXT
C:\BCI2000\BCI2000\SRC\CONTRIB\EXTERNALLINKS\CMAKELISTS.TXT
C:\BCI2000\BCI2000\SRC\CONTRIB\EXTERNALLINKS\PYFFAPPLICATION\CMAKELISTS.TXT
C:\BCI2000\BCI2000\SRC\CONTRIB\OPERATORLIBAPPLICATIONS\CMAKELISTS.TXT
C:\BCI2000\BCI2000\SRC\CONTRIB\OPERATORLIBAPPLICATIONS\OPERATORLIBDEMO\CMAKELISTS.TXT
C:\BCI2000\BCI2000\SRC\CONTRIB\SIGNALPROCESSING\CMAKELISTS.TXT
C:\BCI2000\BCI2000\SRC\CONTRIB\SIGNALPROCESSING\COHERENCE\CMAKELISTS.TXT
C:\BCI2000\BCI2000\SRC\CONTRIB\SIGNALPROCESSING\COHERENCEFFT\CMAKELISTS.TXT
C:\BCI2000\BCI2000\SRC\CONTRIB\SIGNALPROCESSING\FIR\CMAKELISTS.TXT
C:\BCI2000\BCI2000\SRC\CONTRIB\SIGNALPROCESSING\FIELDTRIPBUFFER\CMAKELISTS.TXT
C:\BCI2000\BCI2000\SRC\CONTRIB\SIGNALPROCESSING\HILBERTSIGNALPROCESSING\CMAKELISTS.TXT
C:\BCI2000\BCI2000\SRC\CONTRIB\SIGNALPROCESSING\HILBERTSIGNALPROCESSING\CMDLINE\CMAKELISTS.TXT
C:\BCI2000\BCI2000\SRC\CONTRIB\SIGNALPROCESSING\PEAKDETECTOR\CMAKELISTS.TXT
C:\BCI2000\BCI2000\SRC\CONTRIB\SIGNALPROCESSING\SW\CMAKELISTS.TXT
C:\BCI2000\BCI2000\SRC\CONTRIB\SIGNALPROCESSING\STATISTICS\CMAKELISTS.TXT
C:\BCI2000\BCI2000\SRC\CONTRIB\SIGNALPROCESSING\STATISTICS\CMDLINE\CMAKELISTS.TXT
C:\BCI2000\BCI2000\SRC\CONTRIB\SIGNALSOURCE\AMPSERVERPRO\CMAKELISTS.TXT
C:\BCI2000\BCI2000\SRC\CONTRIB\SIGNALSOURCE\B-ALERT\CMAKELISTS.TXT
C:\BCI2000\BCI2000\SRC\CONTRIB\SIGNALSOURCE\BIORADIO\CMAKELISTS.TXT
C:\BCI2000\BCI2000\SRC\CONTRIB\SIGNALSOURCE\BIOSEMI\CMAKELISTS.TXT
C:\BCI2000\BCI2000\SRC\CONTRIB\SIGNALSOURCE\CMAKELISTS.TXT
C:\BCI2000\BCI2000\SRC\CONTRIB\SIGNALSOURCE\DASSOURCE\CMAKELISTS.TXT
C:\BCI2000\BCI2000\SRC\CONTRIB\SIGNALSOURCE\EMOTIV\CMAKELISTS.TXT
C:\BCI2000\BCI2000\SRC\CONTRIB\SIGNALSOURCE\ENOBIO\CMAKELISTS.TXT
C:\BCI2000\BCI2000\SRC\CONTRIB\SIGNALSOURCE\ENOBIO\ENOBIO\CMAKELISTS.TXT
C:\BCI2000\BCI2000\SRC\CONTRIB\SIGNALSOURCE\FIELDTRIPBUFFERSOURCE\CMAKELISTS.TXT
C:\BCI2000\BCI2000\SRC\CONTRIB\SIGNALSOURCE\FILEPLAYBACK\CMAKELISTS.TXT
C:\BCI2000\BCI2000\SRC\CONTRIB\SIGNALSOURCE\MICROMED\CMAKELISTS.TXT
C:\BCI2000\BCI2000\SRC\CONTRIB\SIGNALSOURCE\MODULAREEG\CMAKELISTS.TXT
C:\BCI2000\BCI2000\SRC\CONTRIB\SIGNALSOURCE\NIDAQ-MX\CMAKELISTS.TXT
C:\BCI2000\BCI2000\SRC\CONTRIB\SIGNALSOURCE\NEURALYNX\CMAKELISTS.TXT
C:\BCI2000\BCI2000\SRC\CONTRIB\SIGNALSOURCE\NEUROSKY\CMAKELISTS.TXT
C:\BCI2000\BCI2000\SRC\CONTRIB\SIGNALSOURCE\NEUROSCAN\CMAKELISTS.TXT
C:\BCI2000\BCI2000\SRC\CONTRIB\SIGNALSOURCE\NEUROSCAN\GETPARAMS\CMAKELISTS.TXT
C:\BCI2000\BCI2000\SRC\CONTRIB\SIGNALSOURCE\NEUROSCANACCESSSDK\CMAKELISTS.TXT
C:\BCI2000\BCI2000\SRC\CONTRIB\SIGNALSOURCE\RDACLIENT\CMAKELISTS.TXT
C:\BCI2000\BCI2000\SRC\CONTRIB\SIGNALSOURCE\RDACLIENT\GETPARAMS\CMAKELISTS.TXT
C:\BCI2000\BCI2000\SRC\CONTRIB\SIGNALSOURCE\RIPPLE\CMAKELISTS.TXT
C:\BCI2000\BCI2000\SRC\CONTRIB\SIGNALSOURCE\TMSI\CMAKELISTS.TXT
C:\BCI2000\BCI2000\SRC\CONTRIB\SIGNALSOURCE\TUCKERDAVIS\CMAKELISTS.TXT
C:\BCI2000\BCI2000\SRC\CONTRIB\SIGNALSOURCE\TUCKERDAVIS\TDTSAMPLERATE\CMAKELISTS.TXT
C:\BCI2000\BCI2000\SRC\CONTRIB\SIGNALSOURCE\GHIAMPSOURCE\CMAKELISTS.TXT
C:\BCI2000\BCI2000\SRC\CONTRIB\SIGNALSOURCE\VAMP\CMAKELISTS.TXT
C:\BCI2000\BCI2000\SRC\CORE\APPLICATION\CMAKELISTS.TXT
C:\BCI2000\BCI2000\SRC\CORE\APPLICATION\CURSORTASK\CMAKELISTS.TXT
C:\BCI2000\BCI2000\SRC\CORE\APPLICATION\DUMMY\CMAKELISTS.TXT
C:\BCI2000\BCI2000\SRC\CORE\APPLICATION\FEEDBACKDEMO\CMAKELISTS.TXT
C:\BCI2000\BCI2000\SRC\CORE\APPLICATION\P3SPELLER\CMAKELISTS.TXT
C:\BCI2000\BCI2000\SRC\CORE\APPLICATION\STIMULUSPRESENTATION\CMAKELISTS.TXT
C:\BCI2000\BCI2000\SRC\CORE\CMAKELISTS.TXT
C:\BCI2000\BCI2000\SRC\CORE\OPERATOR\BCI2000REMOTE\CMAKELISTS.TXT
C:\BCI2000\BCI2000\SRC\CORE\OPERATOR\BCI2000SHELL\CMAKELISTS.TXT
C:\BCI2000\BCI2000\SRC\CORE\OPERATOR\CMAKELISTS.TXT
C:\BCI2000\BCI2000\SRC\CORE\OPERATOR\MESSAGEBOX\CMAKELISTS.TXT
C:\BCI2000\BCI2000\SRC\CORE\OPERATOR\OPERATORLIB\CMAKELISTS.TXT
C:\BCI2000\BCI2000\SRC\CORE\OPERATOR\OPERATORQT\CMAKELISTS.TXT
C:\BCI2000\BCI2000\SRC\CORE\SIGNALPROCESSING\AR\CMAKELISTS.TXT
C:\BCI2000\BCI2000\SRC\CORE\SIGNALPROCESSING\CMAKELISTS.TXT
C:\BCI2000\BCI2000\SRC\CORE\SIGNALPROCESSING\DUMMY\CMAKELISTS.TXT
C:\BCI2000\BCI2000\SRC\CORE\SIGNALPROCESSING\FFT\CMAKELISTS.TXT
C:\BCI2000\BCI2000\SRC\CORE\SIGNALPROCESSING\MATLAB\CMAKELISTS.TXT
C:\BCI2000\BCI2000\SRC\CORE\SIGNALPROCESSING\P3\CMAKELISTS.TXT
C:\BCI2000\BCI2000\SRC\CORE\SIGNALPROCESSING\SPECTRAL\CMAKELISTS.TXT
C:\BCI2000\BCI2000\SRC\CORE\SIGNALSOURCE\CMAKELISTS.TXT
C:\BCI2000\BCI2000\SRC\CORE\SIGNALSOURCE\SIGNALGENERATOR\CMAKELISTS.TXT
C:\BCI2000\BCI2000\SRC\CORE\SIGNALSOURCE\G.MOBILAB\CMAKELISTS.TXT
C:\BCI2000\BCI2000\SRC\CORE\SIGNALSOURCE\G.MOBILABPLUS\CMAKELISTS.TXT
C:\BCI2000\BCI2000\SRC\CORE\SIGNALSOURCE\G.USBAMP\CMAKELISTS.TXT
C:\BCI2000\BCI2000\SRC\CORE\SIGNALSOURCE\G.USBAMP\GETINFO\CMAKELISTS.TXT
C:\BCI2000\BCI2000\SRC\CORE\TOOLS\BCI2000CERTIFICATION\BCI2000CERTIFICATIONANALYSIS\CMAKELISTS.TXT
C:\BCI2000\BCI2000\SRC\CORE\TOOLS\BCI2000CERTIFICATION\BCI2000CERTIFICATIONTESTER\CMAKELISTS.TXT
C:\BCI2000\BCI2000\SRC\CORE\TOOLS\BCI2000CERTIFICATION\CMAKELISTS.TXT
C:\BCI2000\BCI2000\SRC\CORE\TOOLS\BCI2000EXPORTQT\CMAKELISTS.TXT
C:\BCI2000\BCI2000\SRC\CORE\TOOLS\BCI2000FILEINFOQT\CMAKELISTS.TXT
C:\BCI2000\BCI2000\SRC\CORE\TOOLS\BCI2000LAUNCHERQT\CMAKELISTS.TXT
C:\BCI2000\BCI2000\SRC\CORE\TOOLS\BCI2000VIEWERQT\CMAKELISTS.TXT
C:\BCI2000\BCI2000\SRC\CORE\TOOLS\CMAKELISTS.TXT
C:\BCI2000\BCI2000\SRC\CORE\TOOLS\P300CLASSIFIER\CMAKELISTS.TXT
C:\BCI2000\BCI2000\SRC\CORE\TOOLS\CMDLINE\CMAKELISTS.TXT
C:\BCI2000\BCI2000\SRC\CUSTOM\ADCBBBLUEADC\CMAKELISTS.TXT
C:\BCI2000\BCI2000\SRC\CUSTOM\CMAKELISTS.TXT
C:\BCI2000\BCI2000\SRC\CUSTOM\KEYFOBADC\CMAKELISTS.TXT
C:\BCI2000\BCI2000\SRC\CUSTOM\NORDICADC1\CMAKELISTS.TXT
C:\BCI2000\BCI2000\SRC\CUSTOM\OK01\CMAKELISTS.TXT
C:\BCI2000\BCI2000\SRC\CUSTOM\KEYFOB2\CMAKELISTS.TXT
C:\BCI2000\BCI2000\SRC\EXTLIB\3DAPI\DEMO\CMAKELISTS.TXT
C:\BCI2000\BCI2000\SRC\EXTLIB\MATH\STATISTICS\TEST\CMAKELISTS.TXT
C:\BCI2000\BCI2000\SRC\SHARED\UTILS\EXPRESSION\TEST\CMAKELISTS.TXT
C:\PROGRAM FILES (X86)\CMAKE 2.8\SHARE\CMAKE-2.8\MODULES\CMAKECINFORMATION.CMAKE
C:\PROGRAM FILES (X86)\CMAKE 2.8\SHARE\CMAKE-2.8\MODULES\CMAKECXXINFORMATION.CMAKE
C:\PROGRAM FILES (X86)\CMAKE 2.8\SHARE\CMAKE-2.8\MODULES\CMAKECOMMONLANGUAGEINCLUDE.CMAKE
C:\PROGRAM FILES (X86)\CMAKE 2.8\SHARE\CMAKE-2.8\MODULES\CMAKEGENERICSYSTEM.CMAKE
C:\PROGRAM FILES (X86)\CMAKE 2.8\SHARE\CMAKE-2.8\MODULES\CMAKERCINFORMATION.CMAKE
C:\PROGRAM FILES (X86)\CMAKE 2.8\SHARE\CMAKE-2.8\MODULES\CMAKESYSTEMSPECIFICINFORMATION.CMAKE
C:\PROGRAM FILES (X86)\CMAKE 2.8\SHARE\CMAKE-2.8\MODULES\CPACK.CMAKE
C:\PROGRAM FILES (X86)\CMAKE 2.8\SHARE\CMAKE-2.8\MODULES\CHECKSYMBOLEXISTS.CMAKE
C:\PROGRAM FILES (X86)\CMAKE 2.8\SHARE\CMAKE-2.8\MODULES\FINDOPENGL.CMAKE
C:\PROGRAM FILES (X86)\CMAKE 2.8\SHARE\CMAKE-2.8\MODULES\FINDPACKAGEMESSAGE.CMAKE
C:\PROGRAM FILES (X86)\CMAKE 2.8\SHARE\CMAKE-2.8\MODULES\FINDQT4.CMAKE
C:\PROGRAM FILES (X86)\CMAKE 2.8\SHARE\CMAKE-2.8\MODULES\MACROADDFILEDEPENDENCIES.CMAKE
C:\PROGRAM FILES (X86)\CMAKE 2.8\SHARE\CMAKE-2.8\MODULES\PLATFORM\WINDOWS-CL.CMAKE
C:\PROGRAM FILES (X86)\CMAKE 2.8\SHARE\CMAKE-2.8\MODULES\PLATFORM\WINDOWS.CMAKE
C:\PROGRAM FILES (X86)\CMAKE 2.8\SHARE\CMAKE-2.8\MODULES\PLATFORM\WINDOWSPATHS.CMAKE
C:\PROGRAM FILES (X86)\CMAKE 2.8\SHARE\CMAKE-2.8\MODULES\PLATFORM\CL.CMAKE
C:\PROGRAM FILES (X86)\CMAKE 2.8\SHARE\CMAKE-2.8\MODULES\QT4CONFIGDEPENDENTSETTINGS.CMAKE
C:\PROGRAM FILES (X86)\CMAKE 2.8\SHARE\CMAKE-2.8\MODULES\QT4MACROS.CMAKE
C:\PROGRAM FILES (X86)\CMAKE 2.8\SHARE\CMAKE-2.8\MODULES\USEQT4.CMAKE
C:\PROGRAM FILES (X86)\CMAKE 2.8\SHARE\CMAKE-2.8\TEMPLATES\CPACKCONFIG.CMAKE.IN
