^C:\BCI2000\BCI2000\BUILD\CORE\OPERATOR\OPERATORQT\MOC_CONFIGWINDOW.CXX|C:\BCI2000\BCI2000\BUILD\CORE\OPERATOR\OPERATORQT\MOC_CONNECTIONINFO.CXX|C:\BCI2000\BCI2000\BUILD\CORE\OPERATOR\OPERATORQT\MOC_EDITMATRIX.CXX|C:\BCI2000\BCI2000\BUILD\CORE\OPERATOR\OPERATORQT\MOC_MAINWINDOW.CXX|C:\BCI2000\BCI2000\BUILD\CORE\OPERATOR\OPERATORQT\MOC_PARAMDISPLAY.CXX|C:\BCI2000\BCI2000\BUILD\CORE\OPERATOR\OPERATORQT\MOC_PREFDIALOG.CXX|C:\BCI2000\BCI2000\BUILD\CORE\OPERATOR\OPERATORQT\MOC_SHOWPARAMETERS.CXX|C:\BCI2000\BCI2000\BUILD\CORE\OPERATOR\OPERATORQT\MOC_SHOWSTATES.CXX|C:\BCI2000\BCI2000\BUILD\CORE\OPERATOR\OPERATORQT\MOC_SYSLOG.CXX|C:\BCI2000\BCI2000\BUILD\CORE\OPERATOR\OPERATORQT\MOC_VISDISPLAYBASE.CXX|C:\BCI2000\BCI2000\BUILD\CORE\OPERATOR\OPERATORQT\MOC_VISDISPLAYBITMAP.CXX|C:\BCI2000\BCI2000\BUILD\CORE\OPERATOR\OPERATORQT\MOC_VISDISPLAYGRAPH.CXX|C:\BCI2000\BCI2000\BUILD\CORE\OPERATOR\OPERATORQT\MOC_VISDISPLAYLAYER.CXX|C:\BCI2000\BCI2000\BUILD\CORE\OPERATOR\OPERATORQT\MOC_VISDISPLAYMEMO.CXX|C:\BCI2000\BCI2000\BUILD\CORE\OPERATOR\OPERATORQT\MOC_VISDISPLAYWINDOW.CXX|C:\BCI2000\BCI2000\SRC\CORE\OPERATOR\OPERATORLIB\SCRIPTPARSER\PARSERTOKEN.CPP|C:\BCI2000\BCI2000\SRC\CORE\OPERATOR\OPERATORQT\CONFIGWINDOW.CPP|C:\BCI2000\BCI2000\SRC\CORE\OPERATOR\OPERATORQT\CONNECTIONINFO.CPP|C:\BCI2000\BCI2000\SRC\CORE\OPERATOR\OPERATORQT\EDITMATRIX.CPP|C:\BCI2000\BCI2000\SRC\CORE\OPERATOR\OPERATORQT\MAIN.CPP|C:\BCI2000\BCI2000\SRC\CORE\OPERATOR\OPERATORQT\MAINWINDOW.CPP|C:\BCI2000\BCI2000\SRC\CORE\OPERATOR\OPERATORQT\OPERATORUTILS.CPP|C:\BCI2000\BCI2000\SRC\CORE\OPERATOR\OPERATORQT\PARAMDISPLAY.CPP|C:\BCI2000\BCI2000\SRC\CORE\OPERATOR\OPERATORQT\PARSEDCOMMENT.CPP|C:\BCI2000\BCI2000\SRC\CORE\OPERATOR\OPERATORQT\PREFDIALOG.CPP|C:\BCI2000\BCI2000\SRC\CORE\OPERATOR\OPERATORQT\PREFERENCES.CPP|C:\BCI2000\BCI2000\SRC\CORE\OPERATOR\OPERATORQT\SHOWPARAMETERS.CPP|C:\BCI2000\BCI2000\SRC\CORE\OPERATOR\OPERATORQT\SHOWSTATES.CPP|C:\BCI2000\BCI2000\SRC\CORE\OPERATOR\OPERATORQT\SYSLOG.CPP|C:\BCI2000\BCI2000\SRC\CORE\OPERATOR\OPERATORQT\VISDISPLAY.CPP|C:\BCI2000\BCI2000\SRC\CORE\OPERATOR\OPERATORQT\VISDISPLAYBASE.CPP|C:\BCI2000\BCI2000\SRC\CORE\OPERATOR\OPERATORQT\VISDISPLAYBITMAP.CPP|C:\BCI2000\BCI2000\SRC\CORE\OPERATOR\OPERATORQT\VISDISPLAYGRAPH.CPP|C:\BCI2000\BCI2000\SRC\CORE\OPERATOR\OPERATORQT\VISDISPLAYLAYER.CPP|C:\BCI2000\BCI2000\SRC\CORE\OPERATOR\OPERATORQT\VISDISPLAYMEMO.CPP|C:\BCI2000\BCI2000\SRC\CORE\OPERATOR\OPERATORQT\VISDISPLAYWINDOW.CPP|C:\BCI2000\BCI2000\SRC\EXTLIB\MATH\FILTERDESIGN.CPP|C:\BCI2000\BCI2000\SRC\SHARED\BCISTREAM\BCIERROR_GUIAPP.CPP|C:\BCI2000\BCI2000\SRC\SHARED\GUI\ABOUTBOX.CPP|C:\BCI2000\BCI2000\SRC\SHARED\GUI\COLORLISTCHOOSER.CPP|C:\BCI2000\BCI2000\SRC\SHARED\GUI\EXECUTABLEHELP.CPP|C:\BCI2000\BCI2000\SRC\SHARED\GUI\SIGNALDISPLAY.CPP|C:\BCI2000\BCI2000\SRC\SHARED\UTILS\DISPLAYFILTERING\DECIMATIONFILTER.CPP|C:\BCI2000\BCI2000\SRC\SHARED\UTILS\DISPLAYFILTERING\DISPLAYFILTER.CPP|C:\BCI2000\BCI2000\SRC\SHARED\UTILS\DISPLAYFILTERING\SCALEOBSERVATIONFILTER.CPP|C:\BCI2000\BCI2000\SRC\SHARED\UTILS\SETTINGS.CPP
C:\BCI2000\BCI2000\BUILD\CORE\OPERATOR\OPERATORQT\OPERATOR.DIR\RELEASE\MOC_PARAMDISPLAY.OBJ
C:\BCI2000\BCI2000\BUILD\CORE\OPERATOR\OPERATORQT\OPERATOR.DIR\RELEASE\MOC_CONFIGWINDOW.OBJ
C:\BCI2000\BCI2000\BUILD\CORE\OPERATOR\OPERATORQT\OPERATOR.DIR\RELEASE\OPERATORUTILS.OBJ
C:\BCI2000\BCI2000\BUILD\CORE\OPERATOR\OPERATORQT\OPERATOR.DIR\RELEASE\PREFERENCES.OBJ
C:\BCI2000\BCI2000\BUILD\CORE\OPERATOR\OPERATORQT\OPERATOR.DIR\RELEASE\PREFDIALOG.OBJ
C:\BCI2000\BCI2000\BUILD\CORE\OPERATOR\OPERATORQT\OPERATOR.DIR\RELEASE\SHOWPARAMETERS.OBJ
C:\BCI2000\BCI2000\BUILD\CORE\OPERATOR\OPERATORQT\OPERATOR.DIR\RELEASE\EDITMATRIX.OBJ
C:\BCI2000\BCI2000\BUILD\CORE\OPERATOR\OPERATORQT\OPERATOR.DIR\RELEASE\EXECUTABLEHELP.OBJ
C:\BCI2000\BCI2000\BUILD\CORE\OPERATOR\OPERATORQT\OPERATOR.DIR\RELEASE\PARSEDCOMMENT.OBJ
C:\BCI2000\BCI2000\BUILD\CORE\OPERATOR\OPERATORQT\OPERATOR.DIR\RELEASE\PARAMDISPLAY.OBJ
C:\BCI2000\BCI2000\BUILD\CORE\OPERATOR\OPERATORQT\OPERATOR.DIR\RELEASE\CONFIGWINDOW.OBJ
C:\BCI2000\BCI2000\BUILD\CORE\OPERATOR\OPERATORQT\OPERATOR.DIR\RELEASE\FILTERDESIGN.OBJ
C:\BCI2000\BCI2000\BUILD\CORE\OPERATOR\OPERATORQT\OPERATOR.DIR\RELEASE\COLORLISTCHOOSER.OBJ
C:\BCI2000\BCI2000\BUILD\CORE\OPERATOR\OPERATORQT\OPERATOR.DIR\RELEASE\ABOUTBOX.OBJ
C:\BCI2000\BCI2000\BUILD\CORE\OPERATOR\OPERATORQT\OPERATOR.DIR\RELEASE\SIGNALDISPLAY.OBJ
C:\BCI2000\BCI2000\BUILD\CORE\OPERATOR\OPERATORQT\OPERATOR.DIR\RELEASE\SETTINGS.OBJ
C:\BCI2000\BCI2000\BUILD\CORE\OPERATOR\OPERATORQT\OPERATOR.DIR\RELEASE\BCIERROR_GUIAPP.OBJ
C:\BCI2000\BCI2000\BUILD\CORE\OPERATOR\OPERATORQT\OPERATOR.DIR\RELEASE\SCALEOBSERVATIONFILTER.OBJ
C:\BCI2000\BCI2000\BUILD\CORE\OPERATOR\OPERATORQT\OPERATOR.DIR\RELEASE\DECIMATIONFILTER.OBJ
C:\BCI2000\BCI2000\BUILD\CORE\OPERATOR\OPERATORQT\OPERATOR.DIR\RELEASE\DISPLAYFILTER.OBJ
C:\BCI2000\BCI2000\BUILD\CORE\OPERATOR\OPERATORQT\OPERATOR.DIR\RELEASE\MOC_SHOWSTATES.OBJ
C:\BCI2000\BCI2000\BUILD\CORE\OPERATOR\OPERATORQT\OPERATOR.DIR\RELEASE\MOC_SYSLOG.OBJ
C:\BCI2000\BCI2000\BUILD\CORE\OPERATOR\OPERATORQT\OPERATOR.DIR\RELEASE\MOC_CONNECTIONINFO.OBJ
C:\BCI2000\BCI2000\BUILD\CORE\OPERATOR\OPERATORQT\OPERATOR.DIR\RELEASE\MOC_MAINWINDOW.OBJ
C:\BCI2000\BCI2000\BUILD\CORE\OPERATOR\OPERATORQT\OPERATOR.DIR\RELEASE\VISDISPLAYBITMAP.OBJ
C:\BCI2000\BCI2000\BUILD\CORE\OPERATOR\OPERATORQT\OPERATOR.DIR\RELEASE\VISDISPLAYGRAPH.OBJ
C:\BCI2000\BCI2000\BUILD\CORE\OPERATOR\OPERATORQT\OPERATOR.DIR\RELEASE\VISDISPLAYMEMO.OBJ
C:\BCI2000\BCI2000\BUILD\CORE\OPERATOR\OPERATORQT\OPERATOR.DIR\RELEASE\VISDISPLAYBASE.OBJ
C:\BCI2000\BCI2000\BUILD\CORE\OPERATOR\OPERATORQT\OPERATOR.DIR\RELEASE\VISDISPLAYLAYER.OBJ
C:\BCI2000\BCI2000\BUILD\CORE\OPERATOR\OPERATORQT\OPERATOR.DIR\RELEASE\VISDISPLAYWINDOW.OBJ
C:\BCI2000\BCI2000\BUILD\CORE\OPERATOR\OPERATORQT\OPERATOR.DIR\RELEASE\VISDISPLAY.OBJ
C:\BCI2000\BCI2000\BUILD\CORE\OPERATOR\OPERATORQT\OPERATOR.DIR\RELEASE\SHOWSTATES.OBJ
C:\BCI2000\BCI2000\BUILD\CORE\OPERATOR\OPERATORQT\OPERATOR.DIR\RELEASE\SYSLOG.OBJ
C:\BCI2000\BCI2000\BUILD\CORE\OPERATOR\OPERATORQT\OPERATOR.DIR\RELEASE\CONNECTIONINFO.OBJ
C:\BCI2000\BCI2000\BUILD\CORE\OPERATOR\OPERATORQT\OPERATOR.DIR\RELEASE\PARSERTOKEN.OBJ
C:\BCI2000\BCI2000\BUILD\CORE\OPERATOR\OPERATORQT\OPERATOR.DIR\RELEASE\MAINWINDOW.OBJ
C:\BCI2000\BCI2000\BUILD\CORE\OPERATOR\OPERATORQT\OPERATOR.DIR\RELEASE\MAIN.OBJ
C:\BCI2000\BCI2000\BUILD\CORE\OPERATOR\OPERATORQT\OPERATOR.DIR\RELEASE\MOC_PREFDIALOG.OBJ
C:\BCI2000\BCI2000\BUILD\CORE\OPERATOR\OPERATORQT\OPERATOR.DIR\RELEASE\MOC_SHOWPARAMETERS.OBJ
C:\BCI2000\BCI2000\BUILD\CORE\OPERATOR\OPERATORQT\OPERATOR.DIR\RELEASE\MOC_EDITMATRIX.OBJ
C:\BCI2000\BCI2000\BUILD\CORE\OPERATOR\OPERATORQT\OPERATOR.DIR\RELEASE\MOC_VISDISPLAYBITMAP.OBJ
C:\BCI2000\BCI2000\BUILD\CORE\OPERATOR\OPERATORQT\OPERATOR.DIR\RELEASE\MOC_VISDISPLAYGRAPH.OBJ
C:\BCI2000\BCI2000\BUILD\CORE\OPERATOR\OPERATORQT\OPERATOR.DIR\RELEASE\MOC_VISDISPLAYMEMO.OBJ
C:\BCI2000\BCI2000\BUILD\CORE\OPERATOR\OPERATORQT\OPERATOR.DIR\RELEASE\MOC_VISDISPLAYLAYER.OBJ
C:\BCI2000\BCI2000\BUILD\CORE\OPERATOR\OPERATORQT\OPERATOR.DIR\RELEASE\MOC_VISDISPLAYWINDOW.OBJ
C:\BCI2000\BCI2000\BUILD\CORE\OPERATOR\OPERATORQT\OPERATOR.DIR\RELEASE\MOC_VISDISPLAYBASE.OBJ
^C:\BCI2000\BCI2000\BUILD\CORE\OPERATOR\OPERATORQT\MOC_CONFIGWINDOW.CXX|C:\BCI2000\BCI2000\BUILD\CORE\OPERATOR\OPERATORQT\MOC_CONNECTIONINFO.CXX|C:\BCI2000\BCI2000\BUILD\CORE\OPERATOR\OPERATORQT\MOC_EDITMATRIX.CXX|C:\BCI2000\BCI2000\BUILD\CORE\OPERATOR\OPERATORQT\MOC_MAINWINDOW.CXX|C:\BCI2000\BCI2000\BUILD\CORE\OPERATOR\OPERATORQT\MOC_PARAMDISPLAY.CXX|C:\BCI2000\BCI2000\BUILD\CORE\OPERATOR\OPERATORQT\MOC_PREFDIALOG.CXX|C:\BCI2000\BCI2000\BUILD\CORE\OPERATOR\OPERATORQT\MOC_SHOWPARAMETERS.CXX|C:\BCI2000\BCI2000\BUILD\CORE\OPERATOR\OPERATORQT\MOC_SHOWSTATES.CXX|C:\BCI2000\BCI2000\BUILD\CORE\OPERATOR\OPERATORQT\MOC_SYSLOG.CXX|C:\BCI2000\BCI2000\BUILD\CORE\OPERATOR\OPERATORQT\MOC_VISDISPLAYBASE.CXX|C:\BCI2000\BCI2000\BUILD\CORE\OPERATOR\OPERATORQT\MOC_VISDISPLAYBITMAP.CXX|C:\BCI2000\BCI2000\BUILD\CORE\OPERATOR\OPERATORQT\MOC_VISDISPLAYGRAPH.CXX|C:\BCI2000\BCI2000\BUILD\CORE\OPERATOR\OPERATORQT\MOC_VISDISPLAYLAYER.CXX|C:\BCI2000\BCI2000\BUILD\CORE\OPERATOR\OPERATORQT\MOC_VISDISPLAYMEMO.CXX|C:\BCI2000\BCI2000\BUILD\CORE\OPERATOR\OPERATORQT\MOC_VISDISPLAYWINDOW.CXX|C:\BCI2000\BCI2000\SRC\CORE\OPERATOR\OPERATORQT\CONFIGWINDOW.CPP|C:\BCI2000\BCI2000\SRC\CORE\OPERATOR\OPERATORQT\CONNECTIONINFO.CPP|C:\BCI2000\BCI2000\SRC\CORE\OPERATOR\OPERATORQT\EDITMATRIX.CPP|C:\BCI2000\BCI2000\SRC\CORE\OPERATOR\OPERATORQT\MAIN.CPP|C:\BCI2000\BCI2000\SRC\CORE\OPERATOR\OPERATORQT\MAINWINDOW.CPP|C:\BCI2000\BCI2000\SRC\CORE\OPERATOR\OPERATORQT\OPERATORUTILS.CPP|C:\BCI2000\BCI2000\SRC\CORE\OPERATOR\OPERATORQT\PARAMDISPLAY.CPP|C:\BCI2000\BCI2000\SRC\CORE\OPERATOR\OPERATORQT\PREFDIALOG.CPP|C:\BCI2000\BCI2000\SRC\CORE\OPERATOR\OPERATORQT\PREFERENCES.CPP|C:\BCI2000\BCI2000\SRC\CORE\OPERATOR\OPERATORQT\SHOWPARAMETERS.CPP|C:\BCI2000\BCI2000\SRC\CORE\OPERATOR\OPERATORQT\SHOWSTATES.CPP|C:\BCI2000\BCI2000\SRC\CORE\OPERATOR\OPERATORQT\SYSLOG.CPP|C:\BCI2000\BCI2000\SRC\CORE\OPERATOR\OPERATORQT\VISDISPLAY.CPP|C:\BCI2000\BCI2000\SRC\CORE\OPERATOR\OPERATORQT\VISDISPLAYBASE.CPP|C:\BCI2000\BCI2000\SRC\CORE\OPERATOR\OPERATORQT\VISDISPLAYBITMAP.CPP|C:\BCI2000\BCI2000\SRC\CORE\OPERATOR\OPERATORQT\VISDISPLAYGRAPH.CPP|C:\BCI2000\BCI2000\SRC\CORE\OPERATOR\OPERATORQT\VISDISPLAYLAYER.CPP|C:\BCI2000\BCI2000\SRC\CORE\OPERATOR\OPERATORQT\VISDISPLAYMEMO.CPP|C:\BCI2000\BCI2000\SRC\CORE\OPERATOR\OPERATORQT\VISDISPLAYWINDOW.CPP|C:\BCI2000\BCI2000\SRC\SHARED\BCISTREAM\BCIERROR_GUIAPP.CPP|C:\BCI2000\BCI2000\SRC\SHARED\GUI\ABOUTBOX.CPP|C:\BCI2000\BCI2000\SRC\SHARED\GUI\COLORLISTCHOOSER.CPP|C:\BCI2000\BCI2000\SRC\SHARED\GUI\SIGNALDISPLAY.CPP|C:\BCI2000\BCI2000\SRC\SHARED\UTILS\SETTINGS.CPP
C:\BCI2000\BCI2000\BUILD\CORE\OPERATOR\OPERATORQT\OPERATOR.DIR\RELEASE\BCIERROR_GUIAPP.OBJ
C:\BCI2000\BCI2000\BUILD\CORE\OPERATOR\OPERATORQT\OPERATOR.DIR\RELEASE\MAIN.OBJ
C:\BCI2000\BCI2000\BUILD\CORE\OPERATOR\OPERATORQT\OPERATOR.DIR\RELEASE\VISDISPLAYWINDOW.OBJ
C:\BCI2000\BCI2000\BUILD\CORE\OPERATOR\OPERATORQT\OPERATOR.DIR\RELEASE\VISDISPLAYMEMO.OBJ
C:\BCI2000\BCI2000\BUILD\CORE\OPERATOR\OPERATORQT\OPERATOR.DIR\RELEASE\VISDISPLAYLAYER.OBJ
C:\BCI2000\BCI2000\BUILD\CORE\OPERATOR\OPERATORQT\OPERATOR.DIR\RELEASE\VISDISPLAYGRAPH.OBJ
C:\BCI2000\BCI2000\BUILD\CORE\OPERATOR\OPERATORQT\OPERATOR.DIR\RELEASE\VISDISPLAYBITMAP.OBJ
C:\BCI2000\BCI2000\BUILD\CORE\OPERATOR\OPERATORQT\OPERATOR.DIR\RELEASE\VISDISPLAYBASE.OBJ
C:\BCI2000\BCI2000\BUILD\CORE\OPERATOR\OPERATORQT\OPERATOR.DIR\RELEASE\VISDISPLAY.OBJ
C:\BCI2000\BCI2000\BUILD\CORE\OPERATOR\OPERATORQT\OPERATOR.DIR\RELEASE\SYSLOG.OBJ
C:\BCI2000\BCI2000\BUILD\CORE\OPERATOR\OPERATORQT\OPERATOR.DIR\RELEASE\SHOWSTATES.OBJ
C:\BCI2000\BCI2000\BUILD\CORE\OPERATOR\OPERATORQT\OPERATOR.DIR\RELEASE\SHOWPARAMETERS.OBJ
C:\BCI2000\BCI2000\BUILD\CORE\OPERATOR\OPERATORQT\OPERATOR.DIR\RELEASE\PREFERENCES.OBJ
C:\BCI2000\BCI2000\BUILD\CORE\OPERATOR\OPERATORQT\OPERATOR.DIR\RELEASE\PREFDIALOG.OBJ
C:\BCI2000\BCI2000\BUILD\CORE\OPERATOR\OPERATORQT\OPERATOR.DIR\RELEASE\PARAMDISPLAY.OBJ
C:\BCI2000\BCI2000\BUILD\CORE\OPERATOR\OPERATORQT\OPERATOR.DIR\RELEASE\OPERATORUTILS.OBJ
C:\BCI2000\BCI2000\BUILD\CORE\OPERATOR\OPERATORQT\OPERATOR.DIR\RELEASE\MAINWINDOW.OBJ
C:\BCI2000\BCI2000\BUILD\CORE\OPERATOR\OPERATORQT\OPERATOR.DIR\RELEASE\EDITMATRIX.OBJ
C:\BCI2000\BCI2000\BUILD\CORE\OPERATOR\OPERATORQT\OPERATOR.DIR\RELEASE\CONNECTIONINFO.OBJ
C:\BCI2000\BCI2000\BUILD\CORE\OPERATOR\OPERATORQT\OPERATOR.DIR\RELEASE\CONFIGWINDOW.OBJ
C:\BCI2000\BCI2000\BUILD\CORE\OPERATOR\OPERATORQT\OPERATOR.DIR\RELEASE\MOC_VISDISPLAYWINDOW.OBJ
C:\BCI2000\BCI2000\BUILD\CORE\OPERATOR\OPERATORQT\OPERATOR.DIR\RELEASE\MOC_VISDISPLAYMEMO.OBJ
C:\BCI2000\BCI2000\BUILD\CORE\OPERATOR\OPERATORQT\OPERATOR.DIR\RELEASE\MOC_VISDISPLAYLAYER.OBJ
C:\BCI2000\BCI2000\BUILD\CORE\OPERATOR\OPERATORQT\OPERATOR.DIR\RELEASE\MOC_VISDISPLAYGRAPH.OBJ
C:\BCI2000\BCI2000\BUILD\CORE\OPERATOR\OPERATORQT\OPERATOR.DIR\RELEASE\MOC_VISDISPLAYBITMAP.OBJ
C:\BCI2000\BCI2000\BUILD\CORE\OPERATOR\OPERATORQT\OPERATOR.DIR\RELEASE\MOC_VISDISPLAYBASE.OBJ
C:\BCI2000\BCI2000\BUILD\CORE\OPERATOR\OPERATORQT\OPERATOR.DIR\RELEASE\MOC_SYSLOG.OBJ
C:\BCI2000\BCI2000\BUILD\CORE\OPERATOR\OPERATORQT\OPERATOR.DIR\RELEASE\MOC_SHOWSTATES.OBJ
C:\BCI2000\BCI2000\BUILD\CORE\OPERATOR\OPERATORQT\OPERATOR.DIR\RELEASE\MOC_SHOWPARAMETERS.OBJ
C:\BCI2000\BCI2000\BUILD\CORE\OPERATOR\OPERATORQT\OPERATOR.DIR\RELEASE\MOC_PREFDIALOG.OBJ
C:\BCI2000\BCI2000\BUILD\CORE\OPERATOR\OPERATORQT\OPERATOR.DIR\RELEASE\MOC_PARAMDISPLAY.OBJ
C:\BCI2000\BCI2000\BUILD\CORE\OPERATOR\OPERATORQT\OPERATOR.DIR\RELEASE\MOC_MAINWINDOW.OBJ
C:\BCI2000\BCI2000\BUILD\CORE\OPERATOR\OPERATORQT\OPERATOR.DIR\RELEASE\MOC_EDITMATRIX.OBJ
C:\BCI2000\BCI2000\BUILD\CORE\OPERATOR\OPERATORQT\OPERATOR.DIR\RELEASE\MOC_CONNECTIONINFO.OBJ
C:\BCI2000\BCI2000\BUILD\CORE\OPERATOR\OPERATORQT\OPERATOR.DIR\RELEASE\MOC_CONFIGWINDOW.OBJ
C:\BCI2000\BCI2000\BUILD\CORE\OPERATOR\OPERATORQT\OPERATOR.DIR\RELEASE\SETTINGS.OBJ
C:\BCI2000\BCI2000\BUILD\CORE\OPERATOR\OPERATORQT\OPERATOR.DIR\RELEASE\SIGNALDISPLAY.OBJ
C:\BCI2000\BCI2000\BUILD\CORE\OPERATOR\OPERATORQT\OPERATOR.DIR\RELEASE\COLORLISTCHOOSER.OBJ
C:\BCI2000\BCI2000\BUILD\CORE\OPERATOR\OPERATORQT\OPERATOR.DIR\RELEASE\ABOUTBOX.OBJ
