^C:\BCI2000\BCI2000\BUILD\CORE\OPERATOR\OPERATORQT\OPERATOR.DIR\RELEASE\ABOUTBOX.OBJ|C:\BCI2000\BCI2000\BUILD\CORE\OPERATOR\OPERATORQT\OPERATOR.DIR\RELEASE\BCIERROR_GUIAPP.OBJ|C:\BCI2000\BCI2000\BUILD\CORE\OPERATOR\OPERATORQT\OPERATOR.DIR\RELEASE\COLORLISTCHOOSER.OBJ|C:\BCI2000\BCI2000\BUILD\CORE\OPERATOR\OPERATORQT\OPERATOR.DIR\RELEASE\CONFIGWINDOW.OBJ|C:\BCI2000\BCI2000\BUILD\CORE\OPERATOR\OPERATORQT\OPERATOR.DIR\RELEASE\CONNECTIONINFO.OBJ|C:\BCI2000\BCI2000\BUILD\CORE\OPERATOR\OPERATORQT\OPERATOR.DIR\RELEASE\DECIMATIONFILTER.OBJ|C:\BCI2000\BCI2000\BUILD\CORE\OPERATOR\OPERATORQT\OPERATOR.DIR\RELEASE\DISPLAYFILTER.OBJ|C:\BCI2000\BCI2000\BUILD\CORE\OPERATOR\OPERATORQT\OPERATOR.DIR\RELEASE\EDITMATRIX.OBJ|C:\BCI2000\BCI2000\BUILD\CORE\OPERATOR\OPERATORQT\OPERATOR.DIR\RELEASE\EXECUTABLEHELP.OBJ|C:\BCI2000\BCI2000\BUILD\CORE\OPERATOR\OPERATORQT\OPERATOR.DIR\RELEASE\FILTERDESIGN.OBJ|C:\BCI2000\BCI2000\BUILD\CORE\OPERATOR\OPERATORQT\OPERATOR.DIR\RELEASE\MAIN.OBJ|C:\BCI2000\BCI2000\BUILD\CORE\OPERATOR\OPERATORQT\OPERATOR.DIR\RELEASE\MAINWINDOW.OBJ|C:\BCI2000\BCI2000\BUILD\CORE\OPERATOR\OPERATORQT\OPERATOR.DIR\RELEASE\MOC_CONFIGWINDOW.OBJ|C:\BCI2000\BCI2000\BUILD\CORE\OPERATOR\OPERATORQT\OPERATOR.DIR\RELEASE\MOC_CONNECTIONINFO.OBJ|C:\BCI2000\BCI2000\BUILD\CORE\OPERATOR\OPERATORQT\OPERATOR.DIR\RELEASE\MOC_EDITMATRIX.OBJ|C:\BCI2000\BCI2000\BUILD\CORE\OPERATOR\OPERATORQT\OPERATOR.DIR\RELEASE\MOC_MAINWINDOW.OBJ|C:\BCI2000\BCI2000\BUILD\CORE\OPERATOR\OPERATORQT\OPERATOR.DIR\RELEASE\MOC_PARAMDISPLAY.OBJ|C:\BCI2000\BCI2000\BUILD\CORE\OPERATOR\OPERATORQT\OPERATOR.DIR\RELEASE\MOC_PREFDIALOG.OBJ|C:\BCI2000\BCI2000\BUILD\CORE\OPERATOR\OPERATORQT\OPERATOR.DIR\RELEASE\MOC_SHOWPARAMETERS.OBJ|C:\BCI2000\BCI2000\BUILD\CORE\OPERATOR\OPERATORQT\OPERATOR.DIR\RELEASE\MOC_SHOWSTATES.OBJ|C:\BCI2000\BCI2000\BUILD\CORE\OPERATOR\OPERATORQT\OPERATOR.DIR\RELEASE\MOC_SYSLOG.OBJ|C:\BCI2000\BCI2000\BUILD\CORE\OPERATOR\OPERATORQT\OPERATOR.DIR\RELEASE\MOC_VISDISPLAYBASE.OBJ|C:\BCI2000\BCI2000\BUILD\CORE\OPERATOR\OPERATORQT\OPERATOR.DIR\RELEASE\MOC_VISDISPLAYBITMAP.OBJ|C:\BCI2000\BCI2000\BUILD\CORE\OPERATOR\OPERATORQT\OPERATOR.DIR\RELEASE\MOC_VISDISPLAYGRAPH.OBJ|C:\BCI2000\BCI2000\BUILD\CORE\OPERATOR\OPERATORQT\OPERATOR.DIR\RELEASE\MOC_VISDISPLAYLAYER.OBJ|C:\BCI2000\BCI2000\BUILD\CORE\OPERATOR\OPERATORQT\OPERATOR.DIR\RELEASE\MOC_VISDISPLAYMEMO.OBJ|C:\BCI2000\BCI2000\BUILD\CORE\OPERATOR\OPERATORQT\OPERATOR.DIR\RELEASE\MOC_VISDISPLAYWINDOW.OBJ|C:\BCI2000\BCI2000\BUILD\CORE\OPERATOR\OPERATORQT\OPERATOR.DIR\RELEASE\OPERATORUTILS.OBJ|C:\BCI2000\BCI2000\BUILD\CORE\OPERATOR\OPERATORQT\OPERATOR.DIR\RELEASE\PARAMDISPLAY.OBJ|C:\BCI2000\BCI2000\BUILD\CORE\OPERATOR\OPERATORQT\OPERATOR.DIR\RELEASE\PARSEDCOMMENT.OBJ|C:\BCI2000\BCI2000\BUILD\CORE\OPERATOR\OPERATORQT\OPERATOR.DIR\RELEASE\PARSERTOKEN.OBJ|C:\BCI2000\BCI2000\BUILD\CORE\OPERATOR\OPERATORQT\OPERATOR.DIR\RELEASE\PREFDIALOG.OBJ|C:\BCI2000\BCI2000\BUILD\CORE\OPERATOR\OPERATORQT\OPERATOR.DIR\RELEASE\PREFERENCES.OBJ|C:\BCI2000\BCI2000\BUILD\CORE\OPERATOR\OPERATORQT\OPERATOR.DIR\RELEASE\SCALEOBSERVATIONFILTER.OBJ|C:\BCI2000\BCI2000\BUILD\CORE\OPERATOR\OPERATORQT\OPERATOR.DIR\RELEASE\SETTINGS.OBJ|C:\BCI2000\BCI2000\BUILD\CORE\OPERATOR\OPERATORQT\OPERATOR.DIR\RELEASE\SHOWPARAMETERS.OBJ|C:\BCI2000\BCI2000\BUILD\CORE\OPERATOR\OPERATORQT\OPERATOR.DIR\RELEASE\SHOWSTATES.OBJ|C:\BCI2000\BCI2000\BUILD\CORE\OPERATOR\OPERATORQT\OPERATOR.DIR\RELEASE\SIGNALDISPLAY.OBJ|C:\BCI2000\BCI2000\BUILD\CORE\OPERATOR\OPERATORQT\OPERATOR.DIR\RELEASE\SYSLOG.OBJ|C:\BCI2000\BCI2000\BUILD\CORE\OPERATOR\OPERATORQT\OPERATOR.DIR\RELEASE\VISDISPLAY.OBJ|C:\BCI2000\BCI2000\BUILD\CORE\OPERATOR\OPERATORQT\OPERATOR.DIR\RELEASE\VISDISPLAYBASE.OBJ|C:\BCI2000\BCI2000\BUILD\CORE\OPERATOR\OPERATORQT\OPERATOR.DIR\RELEASE\VISDISPLAYBITMAP.OBJ|C:\BCI2000\BCI2000\BUILD\CORE\OPERATOR\OPERATORQT\OPERATOR.DIR\RELEASE\VISDISPLAYGRAPH.OBJ|C:\BCI2000\BCI2000\BUILD\CORE\OPERATOR\OPERATORQT\OPERATOR.DIR\RELEASE\VISDISPLAYLAYER.OBJ|C:\BCI2000\BCI2000\BUILD\CORE\OPERATOR\OPERATORQT\OPERATOR.DIR\RELEASE\VISDISPLAYMEMO.OBJ|C:\BCI2000\BCI2000\BUILD\CORE\OPERATOR\OPERATORQT\OPERATOR.DIR\RELEASE\VISDISPLAYWINDOW.OBJ
C:\BCI2000\BCI2000\PROG\OPERATOR.EXE
C:\BCI2000\BCI2000\BUILD\CORE\OPERATOR\OPERATORQT\OPERATOR.DIR\RELEASE\OPERATOR.EXE.INTERMEDIATE.MANIFEST
