^C:\BCI2000\BCI2000\SRC\CONTRIB\EXTENSIONS\AUDIOEXTENSION\AUDIOEXTENSION.CPP|C:\BCI2000\BCI2000\SRC\CONTRIB\EXTENSIONS\DATAGLOVELOGGER\5DTDATAGLOVEULTRALOGGER.CPP|C:\BCI2000\BCI2000\SRC\CONTRIB\EXTENSIONS\EYETRACKERLOGGER\EYETRACKERLOGGER.CPP|C:\BCI2000\BCI2000\SRC\CONTRIB\EXTENSIONS\WEBCAMLOGGER\WEBCAMLOGGER.CPP|C:\BCI2000\BCI2000\SRC\CONTRIB\EXTENSIONS\WIIMOTELOGGER\EXTLIB\WIIYOURSELF\WIIMOTE.CPP|C:\BCI2000\BCI2000\SRC\CONTRIB\EXTENSIONS\WIIMOTELOGGER\WIIMOTELOGGER.CPP|C:\BCI2000\BCI2000\SRC\EXTLIB\MATH\FILTERDESIGN.CPP|C:\BCI2000\BCI2000\SRC\SHARED\BCISTREAM\BCIERROR_MODULE.CPP|C:\BCI2000\BCI2000\SRC\SHARED\CONFIG\BCIREGISTRY.CPP|C:\BCI2000\BCI2000\SRC\SHARED\FILEIO\DAT\BCI2000FILEWRITER.CPP|C:\BCI2000\BCI2000\SRC\SHARED\FILEIO\DAT\BCI2000OUTPUTFORMAT.CPP|C:\BCI2000\BCI2000\SRC\SHARED\FILEIO\EDF_GDF\EDFFILEWRITER.CPP|C:\BCI2000\BCI2000\SRC\SHARED\FILEIO\EDF_GDF\EDFOUTPUTBASE.CPP|C:\BCI2000\BCI2000\SRC\SHARED\FILEIO\EDF_GDF\EDFOUTPUTFORMAT.CPP|C:\BCI2000\BCI2000\SRC\SHARED\FILEIO\EDF_GDF\GDF.CPP|C:\BCI2000\BCI2000\SRC\SHARED\FILEIO\EDF_GDF\GDFFILEWRITER.CPP|C:\BCI2000\BCI2000\SRC\SHARED\FILEIO\EDF_GDF\GDFOUTPUTFORMAT.CPP|C:\BCI2000\BCI2000\SRC\SHARED\FILEIO\FILEWRITERBASE.CPP|C:\BCI2000\BCI2000\SRC\SHARED\FILEIO\GENERICFILEWRITER.CPP|C:\BCI2000\BCI2000\SRC\SHARED\FILEIO\NULLFILEWRITER.CPP|C:\BCI2000\BCI2000\SRC\SHARED\MODULES\COREMODULE.CPP|C:\BCI2000\BCI2000\SRC\SHARED\MODULES\COREMODULEQT.CPP|C:\BCI2000\BCI2000\SRC\SHARED\MODULES\SIGNALSOURCE\ALIGNMENTFILTER.CPP|C:\BCI2000\BCI2000\SRC\SHARED\MODULES\SIGNALSOURCE\BUFFEREDADC.CPP|C:\BCI2000\BCI2000\SRC\SHARED\MODULES\SIGNALSOURCE\DATAIOFILTER.CPP|C:\BCI2000\BCI2000\SRC\SHARED\MODULES\SIGNALSOURCE\LOGGING\EVENTLINK.CPP|C:\BCI2000\BCI2000\SRC\SHARED\MODULES\SIGNALSOURCE\LOGGING\JOYSTICKLOGGER.CPP|C:\BCI2000\BCI2000\SRC\SHARED\MODULES\SIGNALSOURCE\LOGGING\KEYLOGGER.CPP|C:\BCI2000\BCI2000\SRC\SHARED\MODULES\SIGNALSOURCE\TRANSMISSIONFILTER.CPP
C:\BCI2000\BCI2000\BUILD\FRAMEWORKS\SIGSRCMODULELIB\BCI2000FRAMEWORKSIGSRCMODULE.DIR\RELEASE\JOYSTICKLOGGER.OBJ
C:\BCI2000\BCI2000\BUILD\FRAMEWORKS\SIGSRCMODULELIB\BCI2000FRAMEWORKSIGSRCMODULE.DIR\RELEASE\EVENTLINK.OBJ
C:\BCI2000\BCI2000\BUILD\FRAMEWORKS\SIGSRCMODULELIB\BCI2000FRAMEWORKSIGSRCMODULE.DIR\RELEASE\TRANSMISSIONFILTER.OBJ
C:\BCI2000\BCI2000\BUILD\FRAMEWORKS\SIGSRCMODULELIB\BCI2000FRAMEWORKSIGSRCMODULE.DIR\RELEASE\DATAIOFILTER.OBJ
C:\BCI2000\BCI2000\BUILD\FRAMEWORKS\SIGSRCMODULELIB\BCI2000FRAMEWORKSIGSRCMODULE.DIR\RELEASE\ALIGNMENTFILTER.OBJ
C:\BCI2000\BCI2000\BUILD\FRAMEWORKS\SIGSRCMODULELIB\BCI2000FRAMEWORKSIGSRCMODULE.DIR\RELEASE\BUFFEREDADC.OBJ
C:\BCI2000\BCI2000\BUILD\FRAMEWORKS\SIGSRCMODULELIB\BCI2000FRAMEWORKSIGSRCMODULE.DIR\RELEASE\GDFOUTPUTFORMAT.OBJ
C:\BCI2000\BCI2000\BUILD\FRAMEWORKS\SIGSRCMODULELIB\BCI2000FRAMEWORKSIGSRCMODULE.DIR\RELEASE\GDFFILEWRITER.OBJ
C:\BCI2000\BCI2000\BUILD\FRAMEWORKS\SIGSRCMODULELIB\BCI2000FRAMEWORKSIGSRCMODULE.DIR\RELEASE\GDF.OBJ
C:\BCI2000\BCI2000\BUILD\FRAMEWORKS\SIGSRCMODULELIB\BCI2000FRAMEWORKSIGSRCMODULE.DIR\RELEASE\EDFOUTPUTFORMAT.OBJ
C:\BCI2000\BCI2000\BUILD\FRAMEWORKS\SIGSRCMODULELIB\BCI2000FRAMEWORKSIGSRCMODULE.DIR\RELEASE\EDFOUTPUTBASE.OBJ
C:\BCI2000\BCI2000\BUILD\FRAMEWORKS\SIGSRCMODULELIB\BCI2000FRAMEWORKSIGSRCMODULE.DIR\RELEASE\EDFFILEWRITER.OBJ
C:\BCI2000\BCI2000\BUILD\FRAMEWORKS\SIGSRCMODULELIB\BCI2000FRAMEWORKSIGSRCMODULE.DIR\RELEASE\BCI2000OUTPUTFORMAT.OBJ
C:\BCI2000\BCI2000\BUILD\FRAMEWORKS\SIGSRCMODULELIB\BCI2000FRAMEWORKSIGSRCMODULE.DIR\RELEASE\BCI2000FILEWRITER.OBJ
C:\BCI2000\BCI2000\BUILD\FRAMEWORKS\SIGSRCMODULELIB\BCI2000FRAMEWORKSIGSRCMODULE.DIR\RELEASE\NULLFILEWRITER.OBJ
C:\BCI2000\BCI2000\BUILD\FRAMEWORKS\SIGSRCMODULELIB\BCI2000FRAMEWORKSIGSRCMODULE.DIR\RELEASE\GENERICFILEWRITER.OBJ
C:\BCI2000\BCI2000\BUILD\FRAMEWORKS\SIGSRCMODULELIB\BCI2000FRAMEWORKSIGSRCMODULE.DIR\RELEASE\FILEWRITERBASE.OBJ
C:\BCI2000\BCI2000\BUILD\FRAMEWORKS\SIGSRCMODULELIB\BCI2000FRAMEWORKSIGSRCMODULE.DIR\RELEASE\BCIERROR_MODULE.OBJ
C:\BCI2000\BCI2000\BUILD\FRAMEWORKS\SIGSRCMODULELIB\BCI2000FRAMEWORKSIGSRCMODULE.DIR\RELEASE\COREMODULEQT.OBJ
C:\BCI2000\BCI2000\BUILD\FRAMEWORKS\SIGSRCMODULELIB\BCI2000FRAMEWORKSIGSRCMODULE.DIR\RELEASE\COREMODULE.OBJ
C:\BCI2000\BCI2000\BUILD\FRAMEWORKS\SIGSRCMODULELIB\BCI2000FRAMEWORKSIGSRCMODULE.DIR\RELEASE\BCIREGISTRY.OBJ
C:\BCI2000\BCI2000\BUILD\FRAMEWORKS\SIGSRCMODULELIB\BCI2000FRAMEWORKSIGSRCMODULE.DIR\RELEASE\FILTERDESIGN.OBJ
C:\BCI2000\BCI2000\BUILD\FRAMEWORKS\SIGSRCMODULELIB\BCI2000FRAMEWORKSIGSRCMODULE.DIR\RELEASE\AUDIOEXTENSION.OBJ
C:\BCI2000\BCI2000\BUILD\FRAMEWORKS\SIGSRCMODULELIB\BCI2000FRAMEWORKSIGSRCMODULE.DIR\RELEASE\WIIMOTELOGGER.OBJ
C:\BCI2000\BCI2000\BUILD\FRAMEWORKS\SIGSRCMODULELIB\BCI2000FRAMEWORKSIGSRCMODULE.DIR\RELEASE\WIIMOTE.OBJ
C:\BCI2000\BCI2000\BUILD\FRAMEWORKS\SIGSRCMODULELIB\BCI2000FRAMEWORKSIGSRCMODULE.DIR\RELEASE\EYETRACKERLOGGER.OBJ
C:\BCI2000\BCI2000\BUILD\FRAMEWORKS\SIGSRCMODULELIB\BCI2000FRAMEWORKSIGSRCMODULE.DIR\RELEASE\WEBCAMLOGGER.OBJ
C:\BCI2000\BCI2000\BUILD\FRAMEWORKS\SIGSRCMODULELIB\BCI2000FRAMEWORKSIGSRCMODULE.DIR\RELEASE\5DTDATAGLOVEULTRALOGGER.OBJ
C:\BCI2000\BCI2000\BUILD\FRAMEWORKS\SIGSRCMODULELIB\BCI2000FRAMEWORKSIGSRCMODULE.DIR\RELEASE\KEYLOGGER.OBJ
