^C:\BCI2000\BCI2000\SRC\CORE\OPERATOR\OPERATORLIB\CMAKELISTS.TXT
"C:\Program Files (x86)\CMake 2.8\bin\cmake.exe" -HC:/BCI2000/BCI2000/build -BC:/BCI2000/BCI2000/build --check-stamp-file C:\BCI2000\BCI2000\build\core\Operator\OperatorLib\CMakeFiles\generate.stamp
if errorlevel 1 goto VCReportError
