^C:\BCI2000\BCI2000\BUILD\CORE\SIGNALSOURCE\SIGNALGENERATOR\SIGNALGENERATOR.DIR\RELEASE\COREMAIN.OBJ|C:\BCI2000\BCI2000\BUILD\CORE\SIGNALSOURCE\SIGNALGENERATOR\SIGNALGENERATOR.DIR\RELEASE\SIGNALGENERATORADC.OBJ|C:\BCI2000\BCI2000\BUILD\CORE\SIGNALSOURCE\SIGNALGENERATOR\SIGNALGENERATOR.DIR\RELEASE\TESTLOGGER.OBJ
C:\BCI2000\BCI2000\PROG\SIGNALGENERATOR.EXE
C:\BCI2000\BCI2000\BUILD\CORE\SIGNALSOURCE\SIGNALGENERATOR\SIGNALGENERATOR.DIR\RELEASE\SIGNALGENERATOR.EXE.INTERMEDIATE.MANIFEST
