^C:\BCI2000\BCI2000\BUILD\BUILDTESTING\EXTRACT_REGISTRY.DIR\RELEASE\EXTRACT_REGISTRY.OBJ
C:\BCI2000\BCI2000\BUILD\BUILDUTILS\EXTRACT_REGISTRY.EXE
C:\BCI2000\BCI2000\BUILD\BUILDTESTING\EXTRACT_REGISTRY.DIR\RELEASE\EXTRACT_REGISTRY.EXE.INTERMEDIATE.MANIFEST
