^C:\BCI2000\BCI2000\SRC\CUSTOM\NORDICADC1\NORDICADC1ADC.CPP|C:\BCI2000\BCI2000\SRC\SHARED\MODULES\COREMAIN.CPP|C:\BCI2000\BCI2000\SRC\SHARED\UTILS\SERIALSTREAM.CPP
C:\BCI2000\BCI2000\BUILD\CUSTOM\NORDICADC1\NORDICADC1.DIR\RELEASE\SERIALSTREAM.OBJ
C:\BCI2000\BCI2000\BUILD\CUSTOM\NORDICADC1\NORDICADC1.DIR\RELEASE\NORDICADC1ADC.OBJ
C:\BCI2000\BCI2000\BUILD\CUSTOM\NORDICADC1\NORDICADC1.DIR\RELEASE\COREMAIN.OBJ
^C:\BCI2000\BCI2000\SRC\CUSTOM\NORDICADC1\NORDICADC1ADC.CPP
C:\BCI2000\BCI2000\BUILD\CUSTOM\NORDICADC1\NORDICADC1.DIR\RELEASE\NORDICADC1ADC.OBJ
