^C:\BCI2000\BCI2000\BUILD\CMAKEFILES\GENERATE.STAMP.RULE
"C:\Program Files (x86)\CMake 2.8\bin\cmake.exe" -HC:/BCI2000/BCI2000/build -BC:/BCI2000/BCI2000/build --check-stamp-list CMakeFiles/generate.stamp.list --vs-solution-file "C:\BCI2000\BCI2000\build\BCI2000.sln"
if errorlevel 1 goto VCReportError
